# Paths as seen by a makefile inside subdirectory '.frama-c':
SRCS=\
../tests/fc_script/main.c \
../tests/fc_script/main2.c \
../tests/fc_script/main3.c \


# Possible definition of main function in the following file(s), as seen from '.frama-c':
../tests/fc_script/main.c
../tests/fc_script/main3.c
