/* run.config_qualif
   OPT: -load-module eva,scope -no-wp -eva -eva-msg-key=-summary -then -wp -then -no-eva -warn-unsigned-overflow -wp
 */

/* run.config
   DONTRUN:
*/

int main(int i) { return 1+i; }
