/* run.config*
OPT: -aorai-automata @PTEST_DIR@/@PTEST_NAME@.ya -aorai-test 1 -aorai-acceptance -load-module tests/Aorai_test -aorai-test-number @PTEST_NUMBER@ @PROVE_OPTIONS@
*/

void f(void) { }

/*@ behavior bhv:
    assumes c > 0;
    ensures \result == 0;
*/
int main(int c) {
  if (c <= 0) { f (); }
  return 0;
}
