/* run.config*
   OPT: -aorai-automata @PTEST_DIR@/@PTEST_NAME@.ya -aorai-test 1 -load-module tests/Aorai_test.cmxs -aorai-acceptance -aorai-test-number @PTEST_NUMBER@ @PROVE_OPTIONS@
*/

void f() {}

void g() {}

//@ assigns \nothing;
int main(int c) {
  if (c<0) { c = 0; }
  if (c>5) { c = 5; }
  /*@ assert 0<=c<=5; */
  /*@ loop assigns c; */
  while (c) {
    f();
    g();
    c--;
  }
  return 0;
}

