/* run.config*
   OPT: -aorai-automata @PTEST_DIR@/@PTEST_NAME@.ya -aorai-test 1 -load-module tests/Aorai_test.cmxs -aorai-acceptance -aorai-test-number @PTEST_NUMBER@ @PROVE_OPTIONS@
*/

int main () {}
