[ { "prover": "Alt-Ergo:2.0.0", "verdict": "timeout", "time": 10. },
  { "prover": "script", "verdict": "timeout", "time": 10. },
  { "header": "Range", "tactic": "Wp.range",
    "params": { "inf": 0, "sup": 9 },
    "select": { "select": "inside-goal", "occur": 0, "target": "i_15",
                "pattern": "$i" },
    "children": { "Lower 0": [ { "prover": "qed", "verdict": "valid" } ],
                  "Value 0": [ { "prover": "Alt-Ergo:2.0.0",
                                 "verdict": "timeout", "time": 10. } ],
                  "Value 1": [], "Value 2": [], "Value 3": [], "Value 4": [],
                  "Value 5": [], "Value 6": [], "Value 7": [], "Value 8": [],
                  "Value 9": [],
                  "Upper 9": [ { "prover": "qed", "verdict": "valid" } ] } } ]
