[ { "header": "Range", "tactic": "Wp.range",
    "params": { "inf": 0, "sup": 9 },
    "select": { "select": "inside-goal", "occur": 0, "target": "i_151",
                "pattern": "$i" },
    "children": { "Lower 0": [ { "prover": "qed", "verdict": "valid" } ],
                  "Value 0": [ { "prover": "Alt-Ergo:2.0.0",
                                 "verdict": "valid", "time": 0.0348,
                                 "steps": 35 } ],
                  "Value 1": [ { "prover": "Alt-Ergo:2.0.0",
                                 "verdict": "valid", "time": 0.0334,
                                 "steps": 35 } ],
                  "Value 2": [ { "prover": "Alt-Ergo:2.0.0",
                                 "verdict": "valid", "time": 0.0323,
                                 "steps": 35 } ],
                  "Value 3": [ { "prover": "Alt-Ergo:2.0.0",
                                 "verdict": "valid", "time": 0.0319,
                                 "steps": 35 } ],
                  "Value 4": [ { "prover": "Alt-Ergo:2.0.0",
                                 "verdict": "valid", "time": 0.0331,
                                 "steps": 35 } ],
                  "Value 5": [ { "prover": "Alt-Ergo:2.0.0",
                                 "verdict": "valid", "time": 0.0333,
                                 "steps": 35 } ],
                  "Value 6": [ { "prover": "Alt-Ergo:2.0.0",
                                 "verdict": "valid", "time": 0.0314,
                                 "steps": 35 } ],
                  "Value 7": [ { "prover": "Alt-Ergo:2.0.0",
                                 "verdict": "valid", "time": 0.0322,
                                 "steps": 35 } ],
                  "Value 8": [ { "prover": "Alt-Ergo:2.0.0",
                                 "verdict": "valid", "time": 0.0299,
                                 "steps": 35 } ],
                  "Value 9": [ { "prover": "Alt-Ergo:2.0.0",
                                 "verdict": "valid", "time": 0.0294,
                                 "steps": 35 } ],
                  "Upper 9": [ { "prover": "qed", "verdict": "valid" } ] } } ]
