[ { "header": "Range", "tactic": "Wp.range",
    "params": { "inf": 0, "sup": 9 },
    "select": { "select": "inside-goal", "occur": 0, "target": "i_167",
                "pattern": "$i" },
    "children": { "Lower 0": [ { "prover": "qed", "verdict": "valid" } ],
                  "Value 0": [ { "prover": "Alt-Ergo:2.0.0",
                                 "verdict": "valid", "time": 0.0512,
                                 "steps": 35 } ],
                  "Value 1": [ { "prover": "Alt-Ergo:2.0.0",
                                 "verdict": "valid", "time": 0.0528,
                                 "steps": 35 } ],
                  "Value 2": [ { "prover": "Alt-Ergo:2.0.0",
                                 "verdict": "valid", "time": 0.0513,
                                 "steps": 35 } ],
                  "Value 3": [ { "prover": "Alt-Ergo:2.0.0",
                                 "verdict": "valid", "time": 0.0521,
                                 "steps": 35 } ],
                  "Value 4": [ { "prover": "Alt-Ergo:2.0.0",
                                 "verdict": "valid", "time": 0.0529,
                                 "steps": 35 } ],
                  "Value 5": [ { "prover": "Alt-Ergo:2.0.0",
                                 "verdict": "valid", "time": 0.0489,
                                 "steps": 35 } ],
                  "Value 6": [ { "prover": "Alt-Ergo:2.0.0",
                                 "verdict": "valid", "time": 0.0508,
                                 "steps": 35 } ],
                  "Value 7": [ { "prover": "Alt-Ergo:2.0.0",
                                 "verdict": "valid", "time": 0.0509,
                                 "steps": 35 } ],
                  "Value 8": [ { "prover": "Alt-Ergo:2.0.0",
                                 "verdict": "valid", "time": 0.0493,
                                 "steps": 35 } ],
                  "Value 9": [ { "prover": "Alt-Ergo:2.0.0",
                                 "verdict": "valid", "time": 0.0517,
                                 "steps": 35 } ],
                  "Upper 9": [ { "prover": "qed", "verdict": "valid" } ] } } ]
