directory	file	line	function	property kind	status	property
FRAMAC_SHARE/libc	math.h	478	pow	precondition	Unknown	finite_logic_res: \is_finite(pow(x, y))
tests/report	csv.c	11	main1	signed_overflow	Unknown	-2147483648 ≤ x * x
tests/report	csv.c	11	main1	signed_overflow	Unknown	x * x ≤ 2147483647
tests/report	csv.c	12	main1	index_bound	Unknown	0 ≤ x
tests/report	csv.c	12	main1	index_bound	Unknown	x < 15
tests/report	csv.c	13	main1	initialization	Unknown	\initialized(&u[x])
tests/report	csv.c	17	f	precondition	Unknown	x ≥ 1
tests/report	csv.c	18	f	assigns clause	Unknown	assigns \nothing;
tests/report	csv.c	18	f	from clause	Unknown	assigns \result \from x;
tests/report	csv.c	21	main2	precondition of f	Unknown	x ≥ 1
tests/report	csv.c	22	main2	precondition of f	Unknown	x ≥ 1
tests/report	csv.c	23	main2	precondition of f	Unknown	x ≥ 1
tests/report	csv.c	33	main3	precondition of pow	Unknown	finite_logic_res: \is_finite(pow(x, y))
tests/report	csv.c	37	__FC_assert	precondition	Invalid or unreachable	\false
tests/report	csv.c	50	main4	is_nan_or_infinite	Unknown	\is_finite(d)
tests/report	csv.c	50	main4	precondition of __FC_assert	Invalid or unreachable	\false
