# frama-c -wp -wp-model 'Dump' [...]
[kernel] Parsing tests/wp_plugin/stmt.c (with preprocessing)
[wp] Running WP plugin...
[wp] [CFG] Goal f_exits : Valid (Unreachable)
[wp] [CFG] Goal g_exits : Valid (Unreachable)
[wp] [CFG] Goal g_assigns : Valid (Unreachable)
[wp] [CFG] Goal g_ensures : Valid (Unreachable)
[wp] [CFG] Goal g_exits : Valid (Unreachable)
[wp] [CFG] Goal h_exits : Valid (Unreachable)
[wp] [CFG] Goal h_assigns : Valid (Unreachable)
[wp] [CFG] Goal h_ensures : Valid (Unreachable)
[wp] [CFG] Goal h_exits : Valid (Unreachable)
[wp] CFG h -> h
[wp] CFG h -> h_NEG_stmt_15
[wp] CFG h -> h_POS_stmt_15
[wp] CFG h -> h_default_for_stmt_15
[wp] CFG g -> g
[wp] CFG g -> g_default_for_stmt_11
[wp] CFG f -> f
[wp] CFG f -> f_default_for_stmt_2
[wp] Warning: No goal generated
