[ { "header": "Bit-Test Range", "tactic": "Wp.bittestrange", "params": {},
    "select": { "select": "inside-step", "at": 1, "kind": "have", "occur": 0,
                "target": "not (bit_test off_0 15)",
                "pattern": "!bit_test$off15" },
    "children": { "Bit #15 (inf)": [ { "prover": "qed", "verdict": "valid" } ],
                  "Bit #15 (sup)": [ { "prover": "Alt-Ergo:2.0.0",
                                       "verdict": "valid", "time": 0.0203,
                                       "steps": 21 } ] } } ]
